module alertmanager-gotify

go 1.21

toolchain go1.22.5

require github.com/gotify/go-api-client/v2 v2.0.4

require (
	github.com/PuerkitoBio/purell v1.1.0 // indirect
	github.com/PuerkitoBio/urlesc v0.0.0-20170810143723-de5bf2ad4578 // indirect
	github.com/asaskevich/govalidator v0.0.0-20180720115003-f9ffefc3facf // indirect
	github.com/globalsign/mgo v0.0.0-20180905125535-1ca0a4f7cbcb // indirect
	github.com/go-openapi/analysis v0.17.0 // indirect
	github.com/go-openapi/errors v0.17.2 // indirect
	github.com/go-openapi/jsonpointer v0.17.0 // indirect
	github.com/go-openapi/jsonreference v0.17.0 // indirect
	github.com/go-openapi/loads v0.17.0 // indirect
	github.com/go-openapi/runtime v0.17.2 // indirect
	github.com/go-openapi/spec v0.17.0 // indirect
	github.com/go-openapi/strfmt v0.17.0 // indirect
	github.com/go-openapi/swag v0.17.0 // indirect
	github.com/go-openapi/validate v0.17.0 // indirect
	github.com/mailru/easyjson v0.0.0-20180823135443-60711f1a8329 // indirect
	github.com/mitchellh/mapstructure v1.1.2 // indirect
	golang.org/x/net v0.0.0-20181005035420-146acd28ed58 // indirect
	golang.org/x/text v0.3.0 // indirect
	gopkg.in/yaml.v2 v2.2.1 // indirect
)
